<svg width="17" height="19" viewBox="0 0 17 19" fill="none" xmlns="http://www.w3.org/2000/svg">
<g clip-path="url(#clip0)">
<path d="M14.875 7.95019C14.875 13.1085 8.5 17.5299 8.5 17.5299C8.5 17.5299 2.125 13.1085 2.125 7.95019C2.125 6.19126 2.79665 4.50436 3.99219 3.26061C5.18774 2.01685 6.80924 1.31812 8.5 1.31812C10.1908 1.31812 11.8123 2.01685 13.0078 3.26061C14.2033 4.50436 14.875 6.19126 14.875 7.95019Z" stroke="#CD202C" stroke-width="2" stroke-linecap="round" stroke-linejoin="round"/>
<path d="M8.5 10.1614C9.6736 10.1614 10.625 9.17162 10.625 7.95068C10.625 6.72975 9.6736 5.73999 8.5 5.73999C7.32639 5.73999 6.375 6.72975 6.375 7.95068C6.375 9.17162 7.32639 10.1614 8.5 10.1614Z" stroke="#CD202C" stroke-width="2" stroke-linecap="round" stroke-linejoin="round"/>
</g>
<defs>
<clipPath id="clip0">
<rect width="17" height="17.6855" fill="white" transform="translate(0 0.581787)"/>
</clipPath>
</defs>
</svg>
