<svg width="10" height="13" viewBox="0 0 10 13" fill="none" xmlns="http://www.w3.org/2000/svg">
<g clip-path="url(#clip0)">
<path d="M8.26707 3.68896L3.72012 9.1759L1.65332 6.68184" stroke="#CD202C" stroke-width="2" stroke-linecap="round" stroke-linejoin="round"/>
</g>
<defs>
<clipPath id="clip0">
<rect width="9.92062" height="11.9715" fill="white" transform="translate(0 0.696045)"/>
</clipPath>
</defs>
</svg>
