<svg width="104" height="104" viewBox="0 0 104 104" fill="none" xmlns="http://www.w3.org/2000/svg">
<circle cx="52" cy="52.0002" r="52" fill="url(#paint0_linear)"/>
<path d="M70 48.0002C70 62.0002 52 74.0002 52 74.0002C52 74.0002 34 62.0002 34 48.0002C34 43.2263 35.8964 38.648 39.2721 35.2723C42.6477 31.8967 47.2261 30.0002 52 30.0002C56.7739 30.0002 61.3523 31.8967 64.7279 35.2723C68.1036 38.648 70 43.2263 70 48.0002Z" stroke="white" stroke-width="2" stroke-linecap="round" stroke-linejoin="round"/>
<path d="M52 54.0002C55.3137 54.0002 58 51.314 58 48.0002C58 44.6865 55.3137 42.0002 52 42.0002C48.6863 42.0002 46 44.6865 46 48.0002C46 51.314 48.6863 54.0002 52 54.0002Z" stroke="white" stroke-width="2" stroke-linecap="round" stroke-linejoin="round"/>
<defs>
<linearGradient id="paint0_linear" x1="98.9857" y1="-25.5271" x2="-20.4322" y2="-18.797" gradientUnits="userSpaceOnUse">
<stop stop-color="#CD202C"/>
<stop offset="1" stop-color="#FF3341"/>
</linearGradient>
</defs>
</svg>
